% Created by tikzDevice version 0.10.1 on 2016-03-20 17:20:53
% !TEX encoding = UTF-8 Unicode
\documentclass[10pt]{beamer}
\nonstopmode

\usepackage{tikz}

\usepackage[active,tightpage,psfixbb]{preview}

\PreviewEnvironment{pgfpicture}

\setlength\PreviewBorder{0pt}

\newcommand{\SweaveOpts}[1]{}  % do not interfere with LaTeX
\newcommand{\SweaveInput}[1]{} % because they are not real TeX commands
\newcommand{\Sexpr}[1]{}       % will only be parsed by R


\usepackage[T1]{fontenc}
\setcounter{secnumdepth}{3}
\setcounter{tocdepth}{3}
\setbeamertemplate{itemize items}[default]
\setbeamertemplate{enumerate items}[default]
\setbeamertemplate{navigation symbols}{}
%\setbeamerfont{subsection in toc}{size=\small}
\usepackage{url}
%\usepackage{tikz}
\usepackage{amsmath} 
%\usetheme{Warsaw}
\usecolortheme{rose}

\begin{document}

\begin{tikzpicture}[x=1pt,y=1pt]
\definecolor{fillColor}{RGB}{255,255,255}
\path[use as bounding box,fill=fillColor,fill opacity=0.00] (0,0) rectangle (252.94,252.94);
\begin{scope}
\path[clip] ( 49.20, 61.20) rectangle (227.75,203.75);
\definecolor{drawColor}{RGB}{0,0,0}
\definecolor{fillColor}{RGB}{0,0,0}

\path[draw=drawColor,line width= 0.4pt,line join=round,line cap=round,fill=fillColor] (190.13, 76.95) circle (  1.13);

\path[draw=drawColor,line width= 0.4pt,line join=round,line cap=round,fill=fillColor] ( 76.48, 66.48) circle (  1.13);

\path[draw=drawColor,line width= 0.4pt,line join=round,line cap=round,fill=fillColor] (128.14, 97.90) circle (  1.13);

\path[draw=drawColor,line width= 0.4pt,line join=round,line cap=round,fill=fillColor] ( 86.81, 70.67) circle (  1.13);

\path[draw=drawColor,line width= 0.4pt,line join=round,line cap=round,fill=fillColor] (148.80, 89.52) circle (  1.13);

\path[draw=drawColor,line width= 0.4pt,line join=round,line cap=round,fill=fillColor] (210.80,112.57) circle (  1.13);

\path[draw=drawColor,line width= 0.4pt,line join=round,line cap=round,fill=fillColor] (138.47, 97.90) circle (  1.13);

\path[draw=drawColor,line width= 0.4pt,line join=round,line cap=round,fill=fillColor] (190.13, 87.43) circle (  1.13);

\path[draw=drawColor,line width= 0.4pt,line join=round,line cap=round,fill=fillColor] (169.47,127.23) circle (  1.13);

\path[draw=drawColor,line width= 0.4pt,line join=round,line cap=round,fill=fillColor] (128.14, 93.71) circle (  1.13);

\path[draw=drawColor,line width= 0.4pt,line join=round,line cap=round,fill=fillColor] (107.48, 83.24) circle (  1.13);

\path[draw=drawColor,line width= 0.4pt,line join=round,line cap=round,fill=fillColor] (107.48, 79.05) circle (  1.13);

\path[draw=drawColor,line width= 0.4pt,line join=round,line cap=round,fill=fillColor] ( 76.48, 66.48) circle (  1.13);

\path[draw=drawColor,line width= 0.4pt,line join=round,line cap=round,fill=fillColor] ( 97.14, 76.95) circle (  1.13);

\path[draw=drawColor,line width= 0.4pt,line join=round,line cap=round,fill=fillColor] (107.48, 81.14) circle (  1.13);

\path[draw=drawColor,line width= 0.4pt,line join=round,line cap=round,fill=fillColor] (200.47,129.33) circle (  1.13);

\path[draw=drawColor,line width= 0.4pt,line join=round,line cap=round,fill=fillColor] (148.80,131.42) circle (  1.13);

\path[draw=drawColor,line width= 0.4pt,line join=round,line cap=round,fill=fillColor] (210.80,106.28) circle (  1.13);

\path[draw=drawColor,line width= 0.4pt,line join=round,line cap=round,fill=fillColor] ( 55.81, 68.57) circle (  1.13);

\path[draw=drawColor,line width= 0.4pt,line join=round,line cap=round,fill=fillColor] (138.47, 83.24) circle (  1.13);

\path[draw=drawColor,line width= 0.4pt,line join=round,line cap=round,fill=fillColor] (117.81, 81.14) circle (  1.13);

\path[draw=drawColor,line width= 0.4pt,line join=round,line cap=round,fill=fillColor] (200.47,123.04) circle (  1.13);

\path[draw=drawColor,line width= 0.4pt,line join=round,line cap=round,fill=fillColor] (128.14, 89.52) circle (  1.13);

\path[draw=drawColor,line width= 0.4pt,line join=round,line cap=round,fill=fillColor] (148.80,102.09) circle (  1.13);

\path[draw=drawColor,line width= 0.4pt,line join=round,line cap=round,fill=fillColor] (107.48, 72.76) circle (  1.13);

\path[draw=drawColor,line width= 0.4pt,line join=round,line cap=round,fill=fillColor] (138.47,100.00) circle (  1.13);

\path[draw=drawColor,line width= 0.4pt,line join=round,line cap=round,fill=fillColor] (179.80,112.57) circle (  1.13);

\path[draw=drawColor,line width= 0.4pt,line join=round,line cap=round,fill=fillColor] ( 66.15, 66.48) circle (  1.13);

\path[draw=drawColor,line width= 0.4pt,line join=round,line cap=round,fill=fillColor] (138.47,131.42) circle (  1.13);

\path[draw=drawColor,line width= 0.4pt,line join=round,line cap=round,fill=fillColor] ( 97.14, 72.76) circle (  1.13);

\path[draw=drawColor,line width= 0.4pt,line join=round,line cap=round,fill=fillColor] (128.14,104.19) circle (  1.13);

\path[draw=drawColor,line width= 0.4pt,line join=round,line cap=round,fill=fillColor] (107.48, 74.86) circle (  1.13);

\path[draw=drawColor,line width= 0.4pt,line join=round,line cap=round,fill=fillColor] (138.47, 87.43) circle (  1.13);

\path[draw=drawColor,line width= 0.4pt,line join=round,line cap=round,fill=fillColor] (148.80, 76.95) circle (  1.13);

\path[draw=drawColor,line width= 0.4pt,line join=round,line cap=round,fill=fillColor] (179.80,198.47) circle (  1.13);

\path[draw=drawColor,line width= 0.4pt,line join=round,line cap=round,fill=fillColor] (128.14, 66.48) circle (  1.13);

\path[draw=drawColor,line width= 0.4pt,line join=round,line cap=round,fill=fillColor] (190.13,164.95) circle (  1.13);

\path[draw=drawColor,line width= 0.4pt,line join=round,line cap=round,fill=fillColor] (107.48,108.38) circle (  1.13);

\path[draw=drawColor,line width= 0.4pt,line join=round,line cap=round,fill=fillColor] ( 76.48, 87.43) circle (  1.13);

\path[draw=drawColor,line width= 0.4pt,line join=round,line cap=round,fill=fillColor] (221.13,108.38) circle (  1.13);

\path[draw=drawColor,line width= 0.4pt,line join=round,line cap=round,fill=fillColor] ( 66.15, 70.67) circle (  1.13);

\path[draw=drawColor,line width= 0.4pt,line join=round,line cap=round,fill=fillColor] ( 76.48, 66.48) circle (  1.13);
\end{scope}
\begin{scope}
\path[clip] (  0.00,  0.00) rectangle (252.94,252.94);
\definecolor{drawColor}{RGB}{0,0,0}

\path[draw=drawColor,line width= 0.4pt,line join=round,line cap=round] ( 76.48, 61.20) -- (179.80, 61.20);

\path[draw=drawColor,line width= 0.4pt,line join=round,line cap=round] ( 76.48, 61.20) -- ( 76.48, 55.20);

\path[draw=drawColor,line width= 0.4pt,line join=round,line cap=round] (128.14, 61.20) -- (128.14, 55.20);

\path[draw=drawColor,line width= 0.4pt,line join=round,line cap=round] (179.80, 61.20) -- (179.80, 55.20);

\node[text=drawColor,anchor=base,inner sep=0pt, outer sep=0pt, scale=  1.00] at ( 76.48, 39.60) {5};

\node[text=drawColor,anchor=base,inner sep=0pt, outer sep=0pt, scale=  1.00] at (128.14, 39.60) {10};

\node[text=drawColor,anchor=base,inner sep=0pt, outer sep=0pt, scale=  1.00] at (179.80, 39.60) {15};

\path[draw=drawColor,line width= 0.4pt,line join=round,line cap=round] ( 49.20, 66.48) -- ( 49.20,192.18);

\path[draw=drawColor,line width= 0.4pt,line join=round,line cap=round] ( 49.20, 66.48) -- ( 43.20, 66.48);

\path[draw=drawColor,line width= 0.4pt,line join=round,line cap=round] ( 49.20, 87.43) -- ( 43.20, 87.43);

\path[draw=drawColor,line width= 0.4pt,line join=round,line cap=round] ( 49.20,108.38) -- ( 43.20,108.38);

\path[draw=drawColor,line width= 0.4pt,line join=round,line cap=round] ( 49.20,129.33) -- ( 43.20,129.33);

\path[draw=drawColor,line width= 0.4pt,line join=round,line cap=round] ( 49.20,150.28) -- ( 43.20,150.28);

\path[draw=drawColor,line width= 0.4pt,line join=round,line cap=round] ( 49.20,171.23) -- ( 43.20,171.23);

\path[draw=drawColor,line width= 0.4pt,line join=round,line cap=round] ( 49.20,192.18) -- ( 43.20,192.18);

\node[text=drawColor,rotate= 90.00,anchor=base,inner sep=0pt, outer sep=0pt, scale=  1.00] at ( 34.80, 66.48) {0};

\node[text=drawColor,rotate= 90.00,anchor=base,inner sep=0pt, outer sep=0pt, scale=  1.00] at ( 34.80, 87.43) {10};

\node[text=drawColor,rotate= 90.00,anchor=base,inner sep=0pt, outer sep=0pt, scale=  1.00] at ( 34.80,108.38) {20};

\node[text=drawColor,rotate= 90.00,anchor=base,inner sep=0pt, outer sep=0pt, scale=  1.00] at ( 34.80,129.33) {30};

\node[text=drawColor,rotate= 90.00,anchor=base,inner sep=0pt, outer sep=0pt, scale=  1.00] at ( 34.80,150.28) {40};

\node[text=drawColor,rotate= 90.00,anchor=base,inner sep=0pt, outer sep=0pt, scale=  1.00] at ( 34.80,171.23) {50};

\node[text=drawColor,rotate= 90.00,anchor=base,inner sep=0pt, outer sep=0pt, scale=  1.00] at ( 34.80,192.18) {60};

\path[draw=drawColor,line width= 0.4pt,line join=round,line cap=round] ( 49.20, 61.20) --
	(227.75, 61.20) --
	(227.75,203.75) --
	( 49.20,203.75) --
	( 49.20, 61.20);
\end{scope}
\begin{scope}
\path[clip] (  0.00,  0.00) rectangle (252.94,252.94);
\definecolor{drawColor}{RGB}{0,0,0}

\node[text=drawColor,anchor=base,inner sep=0pt, outer sep=0pt, scale=  1.00] at (138.47, 15.60) {Age};

\node[text=drawColor,rotate= 90.00,anchor=base,inner sep=0pt, outer sep=0pt, scale=  1.00] at ( 10.80,132.47) {Black = Case; Red = Control};

\node[text=drawColor,anchor=base,inner sep=0pt, outer sep=0pt, scale=  1.20] at (138.47,224.18) {\bfseries Counts of naevi};
\end{scope}
\begin{scope}
\path[clip] ( 49.20, 61.20) rectangle (227.75,203.75);
\definecolor{drawColor}{RGB}{255,0,0}
\definecolor{fillColor}{RGB}{255,0,0}

\path[draw=drawColor,line width= 0.4pt,line join=round,line cap=round,fill=fillColor] (190.13, 79.05) circle (  1.13);

\path[draw=drawColor,line width= 0.4pt,line join=round,line cap=round,fill=fillColor] ( 76.48, 72.76) circle (  1.13);

\path[draw=drawColor,line width= 0.4pt,line join=round,line cap=round,fill=fillColor] (128.14, 97.90) circle (  1.13);

\path[draw=drawColor,line width= 0.4pt,line join=round,line cap=round,fill=fillColor] ( 86.81, 68.57) circle (  1.13);

\path[draw=drawColor,line width= 0.4pt,line join=round,line cap=round,fill=fillColor] (148.80, 81.14) circle (  1.13);

\path[draw=drawColor,line width= 0.4pt,line join=round,line cap=round,fill=fillColor] (210.80, 79.05) circle (  1.13);

\path[draw=drawColor,line width= 0.4pt,line join=round,line cap=round,fill=fillColor] (138.47, 74.86) circle (  1.13);

\path[draw=drawColor,line width= 0.4pt,line join=round,line cap=round,fill=fillColor] (190.13,219.42) circle (  1.13);

\path[draw=drawColor,line width= 0.4pt,line join=round,line cap=round,fill=fillColor] (169.47, 74.86) circle (  1.13);

\path[draw=drawColor,line width= 0.4pt,line join=round,line cap=round,fill=fillColor] (128.14, 72.76) circle (  1.13);

\path[draw=drawColor,line width= 0.4pt,line join=round,line cap=round,fill=fillColor] (107.48, 95.81) circle (  1.13);

\path[draw=drawColor,line width= 0.4pt,line join=round,line cap=round,fill=fillColor] (107.48, 66.48) circle (  1.13);

\path[draw=drawColor,line width= 0.4pt,line join=round,line cap=round,fill=fillColor] ( 76.48, 68.57) circle (  1.13);

\path[draw=drawColor,line width= 0.4pt,line join=round,line cap=round,fill=fillColor] ( 97.14, 87.43) circle (  1.13);

\path[draw=drawColor,line width= 0.4pt,line join=round,line cap=round,fill=fillColor] (107.48, 91.62) circle (  1.13);

\path[draw=drawColor,line width= 0.4pt,line join=round,line cap=round,fill=fillColor] (200.47,175.42) circle (  1.13);

\path[draw=drawColor,line width= 0.4pt,line join=round,line cap=round,fill=fillColor] (148.80, 70.67) circle (  1.13);

\path[draw=drawColor,line width= 0.4pt,line join=round,line cap=round,fill=fillColor] (210.80, 87.43) circle (  1.13);

\path[draw=drawColor,line width= 0.4pt,line join=round,line cap=round,fill=fillColor] ( 55.81, 66.48) circle (  1.13);

\path[draw=drawColor,line width= 0.4pt,line join=round,line cap=round,fill=fillColor] (138.47, 72.76) circle (  1.13);

\path[draw=drawColor,line width= 0.4pt,line join=round,line cap=round,fill=fillColor] (117.81, 66.48) circle (  1.13);

\path[draw=drawColor,line width= 0.4pt,line join=round,line cap=round,fill=fillColor] (200.47, 79.05) circle (  1.13);

\path[draw=drawColor,line width= 0.4pt,line join=round,line cap=round,fill=fillColor] (128.14, 72.76) circle (  1.13);

\path[draw=drawColor,line width= 0.4pt,line join=round,line cap=round,fill=fillColor] (148.80, 68.57) circle (  1.13);

\path[draw=drawColor,line width= 0.4pt,line join=round,line cap=round,fill=fillColor] (107.48, 83.24) circle (  1.13);

\path[draw=drawColor,line width= 0.4pt,line join=round,line cap=round,fill=fillColor] (138.47, 74.86) circle (  1.13);

\path[draw=drawColor,line width= 0.4pt,line join=round,line cap=round,fill=fillColor] (179.80, 72.76) circle (  1.13);

\path[draw=drawColor,line width= 0.4pt,line join=round,line cap=round,fill=fillColor] ( 66.15, 66.48) circle (  1.13);

\path[draw=drawColor,line width= 0.4pt,line join=round,line cap=round,fill=fillColor] (138.47,175.42) circle (  1.13);

\path[draw=drawColor,line width= 0.4pt,line join=round,line cap=round,fill=fillColor] ( 97.14,102.09) circle (  1.13);

\path[draw=drawColor,line width= 0.4pt,line join=round,line cap=round,fill=fillColor] (128.14, 79.05) circle (  1.13);

\path[draw=drawColor,line width= 0.4pt,line join=round,line cap=round,fill=fillColor] (107.48, 72.76) circle (  1.13);

\path[draw=drawColor,line width= 0.4pt,line join=round,line cap=round,fill=fillColor] (138.47, 66.48) circle (  1.13);

\path[draw=drawColor,line width= 0.4pt,line join=round,line cap=round,fill=fillColor] (148.80,175.42) circle (  1.13);

\path[draw=drawColor,line width= 0.4pt,line join=round,line cap=round,fill=fillColor] (179.80, 76.95) circle (  1.13);

\path[draw=drawColor,line width= 0.4pt,line join=round,line cap=round,fill=fillColor] (128.14, 74.86) circle (  1.13);

\path[draw=drawColor,line width= 0.4pt,line join=round,line cap=round,fill=fillColor] (190.13, 89.52) circle (  1.13);

\path[draw=drawColor,line width= 0.4pt,line join=round,line cap=round,fill=fillColor] (107.48, 68.57) circle (  1.13);

\path[draw=drawColor,line width= 0.4pt,line join=round,line cap=round,fill=fillColor] ( 76.48, 76.95) circle (  1.13);

\path[draw=drawColor,line width= 0.4pt,line join=round,line cap=round,fill=fillColor] (221.13, 83.24) circle (  1.13);

\path[draw=drawColor,line width= 0.4pt,line join=round,line cap=round,fill=fillColor] ( 66.15, 68.57) circle (  1.13);

\path[draw=drawColor,line width= 0.4pt,line join=round,line cap=round,fill=fillColor] ( 76.48, 72.76) circle (  1.13);
\end{scope}
\end{tikzpicture}

\end{document}
